S02B0000443A2F4D6567612F4E41552F417263686974656374757265206F6620436F6D70757465722F3320633F
S11302007400C0060400E0DE3A30F6DED401C0DE3D
S11302103A30F6DE74008006045CA2D63400000690
S1130220045F02C634008000048D80103A68001018
S11302303A2800F834000001045F022134008001F0
S1130240045F823104FFFFDE3AC80D313A880B00A7
S11302501500C0DF40270000002300003A88090091
S11302603A880B003A880D00C05200003A88091001
S113027080270000012B000004FEFFDE3A880B00FB
S1130280150000DC1501C0DF3A882120C0340000CD
S113029034008000045E821017000011170F8020C4
S11302A0260100103AE83E103A8809800050000008
S11302B0C4008000CC3F40293A8807202E028011D8
S11302C03A70842026080010260500303A88052854
S11302D03A88CD30050080184400C0181EFDBF19AF
S11302E03A8805203A2800F83A920428C403000208
S11302F03A880F203AB084283A9406103AB0C610CF
S11303002E0A80413A88054004FCBF311500C038EC
S11303101501C0381502C0381503C0380404C039AB
S113032036F9BF11C40080002E05801104FFBF31CF
S1130330C40080001500C0380401C03936FBBF1169
S11303403A88073806E03F003A2800F83400800075
S1130350045E82101700801004F3FFDE150B00DF2B
S1130360150180D834008000040080103A00051084
S1130370150280D8170180D8150840DD150700DD67
S113038004528010150CC0DF150AC0DD150980DD8C
S11303901506C0DC150580DC150440DC150300DC03
S11303A03A882B283A883920150080D83A00292821
S11303B0170180D817524014261000881700C0DD9A
S11303C0170180880422808CC4FF3F141609008022
S11303D0C4FFBF051E1500A03A8809843A88052188
S11303E03A8885141720C0102611C0A8C4FF3F8482
S11303F01EF8BF85170280D826310010170CC0DF05
S1130400170B00DF170AC0DD170980DD170840DD70
S1130410170700DD1706C0DC170580DC170440DC75
S1130420170300DC040DC0DE3A2800F83A8809847A
S11304301701C0883A8805213A884514C4FFFF187B
S1130440170280112615001C1502001026E73F3004
S11304504400C0003A98061C174080901701C08CD5
S11304603A70841826140010174180903A7084184A
S11304701E0C00103A8805213A8885141700401193
S11304803A8809E03AE83E30170180881EC8BF98D0
S1130490170080B826D57F1406C53F001501008CCF
S11304A006EA3F003A8805213A88851417000011AE
S11304B03AE83E3006F43F003AE83E3006F23F00A8
S11304C0170180881E0800101700008926070020E5
S11304D0150000B93A88098800000000170040BCE4
S11304E01EB73F8806C53F00170000893A882F8849
S11304F03A8823201EB23F8806C03F003A2800F8FD
S113050004FEFFDE150040DC1501C0DF3A8823201D
S1130510C04F00003A88058806FF3F001701C0DF7E
S1130520170040DC0402C0DE3A2800F83A880B00C9
S1130530840A00013A8805003A880D000605000087
S11305407AD009204C0080201E02C0103A8807107F
S113055006040000440040290E0140313A880D2869
S10F05603A8807101EF63F203A2800F8E5
S107056C480300003C
S10705704300000040
S11305740000000060080000BC0800001809000026
S11305840000000000000000000000000000000063
S11305940000000000000000000000000000000053
S11305A400000000700500000000000000000000CE
S11305B40000000000000000000000000000000033
S11305C40000000000000000000000000000000023
S11305D40000000000000000000000000000000013
S11305E40000000000000000000000000000000003
S11305F400000000000000000000000000000000F3
S113060400000000000000000000000000000000E2
S11306140000000001000000000000000E33CDAB18
S113062434126DE6ECDE05000B000000000000004F
S113063400000000000000000000000000000000B2
S113064400000000000000000000000000000000A2
S11306540000000000000000000000000000000092
S11306640000000000000000000000000000000082
S11306740000000000000000000000000000000072
S11306840000000000000000000000000000000062
S11306940000000000000000000000000000000052
S11306A40000000000000000000000000000000042
S11306B40000000000000000000000000000000032
S11306C40000000000000000000000000000000022
S11306D40000000000000000000000000000000012
S11306E40000000000000000000000000000000002
S11306F400000000000000000000000000000000F2
S113070400000000000000000000000000000000E1
S113071400000000000000000000000000000000D1
S113072400000000000000000000000000000000C1
S113073400000000000000000000000000000000B1
S113074400000000000000000000000000000000A1
S11307540000000000000000000000000000000091
S11307640000000000000000000000000000000081
S11307740000000000000000000000000000000071
S11307840000000000000000000000000000000061
S11307940000000000000000000000000000000051
S11307A40000000000000000000000000000000041
S11307B40000000000000000000000000000000031
S11307C40000000000000000000000000000000021
S11307D40000000000000000000000000000000011
S11307E40000000000000000000000000000000001
S11307F400000000000000000000000000000000F1
S113080400000000000000000000000000000000E0
S113081400000000000000000000000000000000D0
S113082400000000000000000000000000000000C0
S113083400000000000000000000000000000000B0
S113084400000000000000000000000000000000A0
S11308540000000000000000000000000000000090
S11308640000000000000000000000000000000080
S11308740000000000000000000000000000000070
S11308840000000000000000000000000000000060
S11308940000000000000000000000000000000050
S11308A40000000000000000000000000000000040
S11308B40000000000000000000000000000000030
S11308C40000000000000000000000000000000020
S11308D40000000000000000000000000000000010
S11308E40000000000000000000000000000000000
S11308F400000000000000000000000000000000F0
S113090400000000000000000000000000000000DF
S113091400000000000000000000000000000000CF
S113092400000000000000000000000000000000BF
S113093400000000000000000000000000000000AF
S1130944000000000000000000000000000000009F
S1130954000000000000000000000000000000008F
S1130964000000000000000000000000000000007F
S10B0974740500007405000085
S9030200FA
